erlc +native tcbench.erl
erl -sname tcbench +P 100000000 -eval "tcbench:start(100, 100000)" -noinput
2152801
4409575
6721988
9117562
10856858
12649542
14445881
16298317
18218434
20154420
22113084
24092182
26081297
28112011
30169797
32249421
34392249
36535076
38772242
41016107
43270367
45572017
47914528
50291725
52703070
55188850
57680512
60232287
62841265
65514362
68226021
70983979
73788306
76636582
79566685
82549032
85589376
88680640
91817626
95010703
98259870
101569521
104908972
108295674
111734905
114137088
116555623
119008653
121489068
124027249
126580425
129181783
131776927
134426080
137100988
139778855
142479620
145239394
148017866
150822053
153640472
156492440
164817900
168940712
172489506
176128062
179203762
182575580
186281586
189740908
193245084
196956681
200631921
204673889
208592561
212289726
216135184
220071175
224055211
227730881
232383876
236523607
240391353
244501909
248636084
252731567
256613370
260553301
264768528
269091756
273565541
278612618
282963681
287466055
291873598
297246188
302800553
307515636
311790903
316817685
