erlc +native tcbench.erl
erl -sname tcbench +P 100000000 -eval "tcbench:start(100, 100000)" -noinput
2172746
4451477
6766843
9167855
10945213
12753517
14596392
16466407
18361299
20310347
22285071
24288765
26327069
28399609
30505611
32612966
34768808
36956486
39169192
41440881
43750364
46075549
48463862
50879066
53344925
55840601
58395075
60992247
63628608
66321489
69073501
71869771
74712510
77626066
80571924
83626267
86695748
89813001
92981148
96188399
99455478
102767485
106104152
109520644
112964276
115370143
117778576
120245893
122741319
125293255
127832684
130386524
133000521
135658625
138342248
141042985
143728154
146497401
149269339
152089906
154867450
157717563
165307470
169758457
175003280
179341871
183837245
188330002
192494073
196515541
200726941
205619435
211751847
217796641
223124737
228041982
233131623
238398787
244209990
250927629
258506945
265774623
271495613
278434960
287886701
298086394
305461437
313402035
322560504
331598980
340081908
348822359
357722255
364911295
373749889
383314999
393266271
404633139
413592749
421339545
