mkdir -p classes/
javac -cp /home/x/xiaojia/kilim/classes/ -d classes/ KilimBench.java
java -cp /home/x/xiaojia/kilim/classes/:/home/x/xiaojia/kilim/libs/asm-all-2.2.3.jar kilim.tools.Weaver -d classes/ classes/
Wrote: classes//KilimBench.class
java -XX:-UseSplitVerifier -cp classes/:/home/x/xiaojia/kilim/classes/ KilimBench 100 100000 4 8
rounds: 100, step: 100000, nSchedulers: 4, nThreadsPerScheduler: 8
496
897
1242
1620
1985
2272
2542
2897
3248
3589
3849
4113
4369
4633
4887
5146
5405
5662
5927
6191
6461
6709
6961
7228
7489
7745
8067
8320
8587
8848
9131
9394
9653
9909
10169
10430
10720
10983
11317
11658
12004
12303
12572
12921
13216
13471
13730
13987
14252
14527
14796
15105
15366
15626
15891
16147
16410
16675
16933
17199
17454
17733
17998
18266
18534
18806
19065
19413
19633
19882
20141
20403
20669
20933
21195
21468
21750
22008
22264
22527
22780
23029
23290
23542
23788
24031
24280
24525
24778
25023
25270
25544
25789
26039
26285
26536
26791
27052
27303
27564
