mkdir -p classes/
javac -cp /home/x/xiaojia/kilim/classes/ -d classes/ KilimBench.java
java -cp /home/x/xiaojia/kilim/classes/:/home/x/xiaojia/kilim/libs/asm-all-2.2.3.jar kilim.tools.Weaver -d classes/ classes/
Wrote: classes//KilimBench.class
java -XX:-UseSplitVerifier -cp classes/:/home/x/xiaojia/kilim/classes/ KilimBench 100 100000 4 8
rounds: 100, step: 100000, nSchedulers: 4, nThreadsPerScheduler: 8
491
895
1253
1622
1957
2315
2608
2889
3174
3465
3838
4248
4621
4799
5151
5510
5809
6104
6404
6703
7015
7315
7632
7904
8278
8594
8860
9130
9423
9787
10148
10491
10776
11058
11337
11695
12054
12332
12610
12884
13244
13554
13846
14172
14450
14713
14982
15244
15506
15778
16081
16345
16682
17065
17430
17706
17981
18255
18597
18979
19356
19673
19937
20278
20567
20829
21083
21332
21598
21851
22109
22375
22635
22895
23149
23409
23663
23925
24180
24441
24698
24959
25221
25492
25769
26086
26422
26688
26972
27226
27490
27752
28052
28396
28819
29168
29497
29824
30157
30454
